…
```r
#When you type a question mark before the name of a method or a dataset, you get more information or "help" on such data set or such method, and that shows up in your view window to the right.
?starwars

#The pipe operator is used to "pipe" in R. Upon research I learned that it basically takes the output of one function and passes it into another function as an argument.
starwars %>% count(species)
```

```
## # A tibble: 38 x 2
##    species       n
##    <chr>     <int>
##  1 Aleena        1
##  2 Besalisk      1
##  3 Cerean        1
##  4 Chagrian      1
##  5 Clawdite      1
##  6 Droid         6
##  7 Dug           1
##  8 Ewok          1
##  9 Geonosian     1
## 10 Gungan        3
## # ... with 28 more rows
```
…
